{
    "id": "Botble/blog",
    "name": "Blog",
    "namespace": "Botble\\Blog\\",
    "provider": "Botble\\Blog\\Providers\\BlogServiceProvider",
    "author": "CYBER WOLF CI",
    "url": "https://Botble.com",
    "version": "2.0.0",
    "description": "Manage posts, categories, tags"
}
