{
    "id": "Botble/contact",
    "name": "Contact Form",
    "namespace": "Botble\\Contact\\",
    "provider": "Botble\\Contact\\Providers\\ContactServiceProvider",
    "author": "CYBER WOLF CI",
    "url": "https://Botble.com",
    "version": "2.0.0",
    "description": "Contact Form"
}
