{
    "id": "Botble/payment",
    "name": "Payment",
    "namespace": "Botble\\Payment\\",
    "provider": "Botble\\Payment\\Providers\\PaymentServiceProvider",
    "author": "CYBER WOLF CI",
    "url": "https://Botble.com",
    "version": "1.1.0",
    "description": "Payment plugin"
}
